Check Correct
…
# A tibble: 0 x 23
# … with 23 variables: adm_type_id <chr>, admission_date <chr>,
#   admission_id <int>, campus_id <chr>, country_id <int>, date_of_birth <chr>,
#   diag_code_1 <chr>, diag_code_2 <chr>, diag_code_3 <chr>, given_name <chr>,
#   hospital_insurance_id <int>, indigenous_status_id <int>,
#   marital_status_id <int>, patient_days_total <int>, patient_id <chr>,
#   postcode <int>, proc_code_1 <int>, proc_code_2 <int>, proc_code_3 <int>,
#   sep_mode_id <chr>, separation_date <chr>, sex_id <int>, speciality_id <chr>

dates that have not happened dates

df %>%
  filter( admission_date >= '2019') 

# A tibble: 2,699 x 23
   adm_type_id admission_date admission_id campus_id country_id date_of_birth
   <chr>       <chr>                 <int> <chr>          <int> <chr>        
 1 X           2019-05-02         21000122 1492            3216 1955-01-17   
 2 C           2019-06-09         21001635 2070            3105 1996-04-30   
 3 X           2019-12-26         21001894 1334            1101 1942-07-24   
 4 C           2019-12-31         21001970 2120            1101 1936-07-19   
 5 X           2019-04-10         21004850 2260            4202 1928-08-07   
 6 X           2019-01-09         21004930 3080            8200 1938-06-04   
 7 L           2019-01-17         21007084 2070            8299 1965-11-03   
 8 C           2019-07-09         21007325 1660            3304 1927-06-11   
 9 L           2019-08-07         21008333 1180            3300 1964-09-29   
10 L           2019-09-26         21008501 1370            2406 1986-07-25   
# … with 2,689 more rows, and 17 more variables: diag_code_1 <chr>,
#   diag_code_2 <chr>, diag_code_3 <chr>, given_name <chr>,
#   hospital_insurance_id <int>, indigenous_status_id <int>,
#   marital_status_id <int>, patient_days_total <int>, patient_id <chr>,
#   postcode <int>, proc_code_1 <int>, proc_code_2 <int>, proc_code_3 <int>,
#   sep_mode_id <chr>, separation_date <chr>, sex_id <int>, speciality_id <chr>
…
